{
	"type": "object",
	"properties": {
	  "Preset Search": {
		"type": "string",
		"enum":[
			"Preset Search",
			"Someother Search",
			"Another Search"
		]
	  },
	  "Search": {
		"type": "string"
	  },
	  "StartInterval": {
		"type": "string",
		"format":"date"
	  },
	  "EndInterval": {
		"type": "string",
		"format":"date"
	  }
	},
	"required": [
	  "Preset Search"
	]
  }
  